{
	"name": "indexExamApprovalStatus",
	"index": {
		"fields": [
			{"createDate": "desc"},
			{"status": "desc"},
			{"chairpersonId": "desc"},
			{"docType": "desc"}
		]
	},
	"ddoc": "ddocExamApprovalStatus",
	"type": "json"
}